…
### What This Code Does:

1. **Takes the filtered dataset** (without list columns)
2. **Randomly samples 10%** of all Star Wars characters
3. **Returns a random subset** - different characters each time you run it
4. **Maintains all columns** from the filtered dataset

### Expected Output:
```r
# A tibble: 9 × 11  (approximately, since 87 * 0.1 ≈ 8.7)
  name           height  mass hair_color skin_color eye_color birth_year sex   
  <chr>           <int> <dbl> <chr>      <chr>      <chr>          <dbl> <chr> 
1 Boba Fett         183    78 black      fair       brown           31.5 male  
2 Wicket            88    20 brown      brown      brown              8 male  
3 Nien Nunb         160    68 none       grey       black             NA male  
# ... with 6 more rows, and 3 more variables: gender, homeworld, species
```
…
